{
  "images" : [
    {
      "idiom" : "tv",
      "filename" : "ATV-ICON_2.png",
      "scale" : "1x"
    },
    {
      "idiom" : "tv",
      "scale" : "2x"
    }
  ],
  "info" : {
    "version" : 1,
    "author" : "xcode"
  }
}